<svg width="57" height="57" viewBox="0 0 57 57" fill="none" xmlns="http://www.w3.org/2000/svg">
<path d="M24.4992 13.2832C20.1492 13.685 15.9242 15.5683 12.5992 18.9079C5.02422 26.5163 5.02422 38.8202 12.5992 46.4286C20.1742 54.037 32.4242 54.037 39.9992 46.4286C43.3242 43.089 45.1742 38.8454 45.5992 34.4762L47.1242 36.0079C46.4492 40.2515 44.4742 44.3445 41.2242 47.6339C32.9992 55.8951 19.6492 55.8951 11.3992 47.6339C3.17422 39.3727 3.17422 25.9639 11.3992 17.6775C14.6492 14.4132 18.7242 12.4295 22.9492 11.7515L24.4992 13.2832ZM26.2242 8.58765L33.1742 15.5683L32.2742 16.4722C31.7492 16.9995 30.8742 16.9995 30.3242 16.4722L25.2992 11.4251C24.7742 10.8978 24.7742 10.0189 25.2992 9.46651L26.2242 8.58765ZM40.2492 18.3806C36.2242 14.3379 34.8742 14.0868 33.9992 14.7396L27.0492 7.75902C28.4242 6.4784 31.9742 6.70439 34.3492 7.60836C37.3492 8.78853 40.5742 10.9229 44.0492 14.4132C47.1242 17.4766 49.7492 21.1929 51.0242 24.3066C51.7492 26.0643 52.5992 30.3832 51.0992 31.8899L44.2742 25.0599C44.6742 24.3066 44.6242 22.7749 40.2492 18.3806ZM43.4492 25.8885L50.2742 32.7436L49.3742 33.6476C48.8492 34.1749 47.9742 34.1749 47.4242 33.6476L42.5492 28.7511C42.0242 28.2238 42.0242 27.3449 42.5492 26.7925L43.4492 25.8885ZM15.8742 30.7097H12.8492C12.8492 30.0568 12.8992 29.4793 13.0242 28.9771C13.1242 28.4749 13.3242 28.0229 13.6242 27.6462C13.9242 27.2696 14.3242 26.9934 14.8742 26.7925C15.3992 26.5916 16.0992 26.4912 16.9242 26.4912C17.9992 26.4912 18.8242 26.6418 19.3992 26.9432C19.9742 27.2445 20.3742 27.6462 20.5992 28.1736C20.8242 28.6758 20.9242 29.2533 20.8992 29.881C20.8992 30.7097 20.7492 31.4379 20.4742 32.0154C20.1992 32.5929 19.8242 33.1203 19.3492 33.5722L17.4242 35.4555C17.2742 35.6062 17.1242 35.7568 16.9742 35.9326C16.8242 36.1084 16.6992 36.2841 16.6242 36.485H20.8992V38.9458H12.7242C12.7242 38.0921 12.8492 37.2634 13.1242 36.4599C13.3992 35.6564 13.8742 34.9031 14.5742 34.1749L16.7492 31.9652C17.0742 31.6639 17.2992 31.3625 17.4242 31.0612C17.5492 30.7599 17.6242 30.3832 17.6242 29.9313C17.6242 29.404 17.5492 29.0524 17.3992 28.8515C17.2492 28.6506 17.0492 28.5502 16.7992 28.5502C16.5742 28.5251 16.3492 28.6255 16.1742 28.8515C15.9992 29.0775 15.8992 29.5295 15.8992 30.2075V30.7097H15.8742ZM24.3992 34.2753H26.4742V30.1321L24.3992 34.2753ZM21.9492 36.6106V34.1498L25.8742 26.7172H29.3992V34.2502H30.4742V36.6106H29.3992V38.9207H26.3492V36.6106H21.9492ZM32.0242 38.9458V26.3907H35.1742V30.4837C35.4742 29.9815 35.8242 29.6551 36.2242 29.4542C36.6242 29.2533 37.0242 29.178 37.3992 29.178C38.0742 29.1528 38.6492 29.3537 39.1242 29.7304C39.5992 30.107 39.8492 30.785 39.8742 31.7643V38.9458H36.6992V32.6683C36.6992 32.2665 36.6492 31.9903 36.5242 31.8145C36.3992 31.6388 36.1992 31.5383 35.9242 31.5383C35.6492 31.5383 35.4492 31.6136 35.3242 31.8145C35.1992 31.9903 35.1492 32.2916 35.1492 32.6683V38.9458H32.0242Z" fill="#202125"/>
</svg>
