{
  "name": "",
  "css_prefix_text": "icon-",
  "css_use_suffix": false,
  "hinting": true,
  "units_per_em": 1000,
  "ascent": 850,
  "glyphs": [
    {
      "uid": "d9be617b7f2fe7843118ca2d3a1b8cca",
      "css": "down-open",
      "code": 61444,
      "src": "mfglabs"
    },
    {
      "uid": "f11c9e95ae5eaa84d193e8fa1d38c6f9",
      "css": "down-open-mini",
      "code": 59392,
      "src": "entypo"
    }
  ]
}