<svg width="33" height="55" viewBox="0 0 33 55" fill="none" xmlns="http://www.w3.org/2000/svg">
<path opacity="0.5" d="M0 1.36105L30.3266 27.2209L0 53.0808L1.00253 54.4419L33 27.2209L1.00253 0L0 1.36105Z" fill="#202125"/>
</svg>
